{
    "antifeatures": {
        "Ads": "יישומון זה מכיל פרסום",
        "DisabledAlgorithm": "ליישומון זה יש חתימת אבטחה חלשה",
        "KnownVuln": "יישומון זה מכיל חולשת אבטחה ידועה",
        "NoSourceSince": "קוד המקור אינו זמין עוד, אין עדכונים.",
        "NonFreeAdd": "יישומון זה מקדם תוספים שאינם חופשיים",
        "NonFreeAssets": "יישומון זה מכיל נכסים בלתי חופשיים",
        "NonFreeDep": "יישומון זה תלוי ביישומונים אחרים שאינם חופשיים",
        "NonFreeNet": "יישומון זה מקדם שירותי רשת שאינם חופשיים",
        "Tracking": "יישומון זה עוקב ומדווח על פעילותך",
        "UpstreamNonFree": "קוד המקור בתצורתו המקורית אינו חופשי לחלוטין"
    },
    "index": {
        "download_fdroid": "הורדת F-Droid",
        "gpg_signature": "חתימת PGP",
        "introduction": "F-Droid הוא קטלוג בר התקנה של יישומוני תכנה חופשית (FOSS) לפלטפורמת Android. הלקוח מקל על העיון, ההתקנה ושמירה על עדכונים להתקן שלך.",
        "screenshot": "צילום מסך של יישומון F-Droid ל־Android",
        "title": "מה זה F-Droid?"
    },
    "navigation": {
        "about": "על אודות",
        "browse": "עיון",
        "contribute": "תרומה",
        "documentation": "מסמכים",
        "forum": "פורום",
        "issues": "בעיות",
        "news": "חדשות"
    },
    "package": {
        "anti_features": "תכונות פוגעניות",
        "anti_features_warning": "ביישומון זה ישנן תכונות שעשויות לא לשאת חן בעיניך.",
        "author": "יוצר",
        "build_metadata": "נתונים על הבנייה",
        "changelog": "יומן שינויים",
        "donate": "תרומה",
        "download": "הורדת [file_extension]",
        "flattr": "Flattr",
        "gpg_signature": "חתימת PGP",
        "issue_tracker": "עוקב תקלות",
        "liberapay": "Liberapay",
        "license": "רישיון",
        "minimum_android_version": "גרסה זו דורשת Android בגרסה [android_version] ומעלה.",
        "new_in_version": "חדש בגרסה [latest_version]",
        "packages": "חבילות",
        "permissions": "הרשאות",
        "signed_by_developer": "היא נבנתה ונחתמה על ידי המפתח המקורי.",
        "signed_by_fdroid": "היא נבנתה ונחתמה על ידי F-Droid, לצד ההבטחה שהיא תישאר נאמנה ל<a href=\"[source_code_url]\">קובץ איסוף המקור הזה</a>.",
        "source_code": "קוד מקור",
        "suggest_downloading_via_fdroid": "למרות שניתן להוריד קובצי APK להלן כדי להעניק לך בחירה, ראוי לזכור שהתקנה בדרך זו לא תבטיח התרעות על עדכונים והיא פחות מאובטחת מבחינת הורדה. אנו ממליצים להתקין דרך לקוח ה־F-Droid ולהשתמש בו.",
        "technical_info": "פירוט טכני",
        "translation": "תרגום",
        "version_info": "<b>גרסה [package_version]</b> ([package_version_code]) - נוספה ב־[package_added_date]",
        "website": "אתר"
    },
    "sidebars": {
        "donate": {
            "bank_transfer_name": "שם",
            "bitcoin_alt": "תרומת ביטקוין",
            "flattr_alt": "תרומה דרך Flattr",
            "heading": "תרומה",
            "hellotux": "👕 חולצות 👕 מטעם",
            "hellotux_alt": "HELLOTUX",
            "hellotux_donation": "ל־F-Droid יגיעו 3€ על כל חולצה שנמכרת.",
            "liberapay_alt": "תרומה דרך Liberapay",
            "litecoin_alt": "תרומת Litecoin",
            "paypal_alt": "תרומה דרך PayPal",
            "powered_by_donations": "F-Droid נסמכת על התרומות שלך!",
            "via_bank_transfer": "העברה בנקאית"
        },
        "lang": {
            "change": "החלפה"
        },
        "last_updated": {
            "heading": "עדכון אחרון"
        },
        "latest_packages": {
            "heading": "יישומונים עדכניים"
        },
        "news": {
            "heading": "חדשות"
        },
        "search": {
            "heading": "חיפוש יישומונים",
            "noscript": "נדרשת הפעלה של JavaScript",
            "search": "חיפוש"
        }
    }
}
